<?xml version="1.0" encoding="utf-8"?>
<!-- Generator: Adobe Illustrator 16.0.4, SVG Export Plug-In . SVG Version: 6.00 Build 0)  -->
<!DOCTYPE svg PUBLIC "-//W3C//DTD SVG 1.1//EN" "http://www.w3.org/Graphics/SVG/1.1/DTD/svg11.dtd">
<svg version="1.1" id="Layer_1" xmlns="http://www.w3.org/2000/svg" xmlns:xlink="http://www.w3.org/1999/xlink" x="0px" y="0px"
	 width="164.598px" height="194.371px" viewBox="0 0 164.598 194.371" enable-background="new 0 0 164.598 194.371"
	 xml:space="preserve">
<path d="M12.379,72.451c-3.754,0-7.561-0.208-11.31-0.611L0,71.728l0.67-0.838c0.923-1.146,1.795-2.372,2.604-3.622
	c7.688-12,15.664-19.861,27.688-30.181c21.049-18.05,46.338-30.091,73.146-34.812l0.303-0.053c2.492-0.366,4.978-0.98,7.373-1.817
	L112.92,0l-0.391,1.152c-2.312,6.646-5.309,13.112-8.912,19.208l-0.139,0.225l-0.248,0.052
	c-22.172,4.617-43.146,14.986-60.646,29.999c-8.908,7.646-15.164,13.562-20.781,21.188l-0.155,0.223L21.39,72.06
	C18.336,72.322,15.314,72.451,12.379,72.451z"/>
</svg>
