<?xml version="1.0" encoding="utf-8"?>
<!-- Generator: Adobe Illustrator 16.0.4, SVG Export Plug-In . SVG Version: 6.00 Build 0)  -->
<!DOCTYPE svg PUBLIC "-//W3C//DTD SVG 1.1//EN" "http://www.w3.org/Graphics/SVG/1.1/DTD/svg11.dtd">
<svg version="1.1" id="Layer_1" xmlns="http://www.w3.org/2000/svg" xmlns:xlink="http://www.w3.org/1999/xlink" x="0px" y="0px"
	 width="521.536px" height="116.495px" viewBox="239.193 429.955 521.536 116.495"
	 enable-background="new 239.193 429.955 521.536 116.495" xml:space="preserve">
<g>
	<g>
		<path d="M402.844,459.968v24.496c-0.111,8.085-0.23,11.783-2.309,15.595c-1.848,3.007-5.432,6.126-11.209,6.126
			c-5.082,0-9.244-2.197-10.746-7.279c-0.461-1.499-0.461-3.468-0.461-5.777v-25.281c-0.166-4.115-3.328-7.457-7.369-7.879h-6.609
			v33.395c0,8.666,0,14.094,3.928,19.062c2.078,2.657,6.582,6.703,16.059,6.703c10.631,0,16.295-4.969,18.719-7.28v0.057h0.062
			c0,3.156,2.5,5.723,5.629,5.836h8.174v-57.771L402.844,459.968L402.844,459.968z"/>
		<path d="M489.78,442.855c0,4.483-3.631,8.112-8.115,8.112c-4.48,0-8.113-3.629-8.113-8.112c0-4.484,3.633-8.114,8.113-8.114
			C486.149,434.741,489.78,438.37,489.78,442.855"/>
		<path d="M277.187,513.247h0.004c0.005-0.008,0.011-0.008,0.015-0.016c0,0.155,0.01,0.367,0.025,0.619
			c0.271,2.041,1.9,3.656,3.958,3.893h12.771c-2.539-3.467-2.539-4.972-2.539-9.367v-30.614c0-6.239-0.118-11.671-6.938-15.829
			c-5.078-3.001-11.779-3.696-17.329-3.696c-3.698,0-17.45,0-22.993,10.05c-1.038,1.888-1.57,3.48-1.872,5.028l13.799,2.829
			c0.074-1.099,0.357-2.23,1.358-3.466c1.387-1.848,4.507-3.694,10.288-3.694c5.933,0,8.283,2.258,9.212,4.664
			c0.896,3.345-0.6,4.338-3.176,5.269c-2.789,0.791-5.719,1.41-14.127,3.126c-5.548,1.036-14.446,2.888-18.604,11.208
			c-1.153,2.308-1.846,4.965-1.846,7.856c0,9.932,7.854,18.022,20.91,18.022c7.955,0,14.069-3.339,17.082-5.879v-0.003H277.187z
			 M263.227,507.225c-5.547,0-9.36-2.31-9.36-6.817c0-6.121,6.589-7.279,11.557-7.969c6.236-1.04,9.355-2.082,12.131-3.469v6.355
			c0,1.732,0,3.464-0.811,5.199C275.247,503.987,270.277,507.225,263.227,507.225"/>
		<path d="M529.676,458.234c-17.217,0-29.467,12.712-29.467,30.388c0,17.677,12.018,30.852,30.043,30.852
			c17.451,0,29.35-12.824,29.35-30.852C559.489,469.442,545.735,458.234,529.676,458.234 M530.254,506.762
			c-8.32,0-15.602-6.586-15.602-18.486c0-10.629,6.242-17.562,14.904-17.562c9.709,0,15.256,8.088,15.484,17.679
			C545.391,497.983,540.307,506.762,530.254,506.762"/>
		<path d="M348.473,489.532c-3.428-3.199-6.721-4.066-18.492-7.306c-7.26-1.909-11.416-3.436-11.049-7.577
			c0.258-2.992,3.502-5.606,10.062-5.034c5.77,0.506,9.363,2.669,11.631,5.027l8.879-8.469c-0.152-0.124-0.295-0.246-0.457-0.37
			c-3.67-3.104-9.756-6.419-18.506-7.188c-15.768-1.384-25.422,6.818-26.277,16.599c-0.453,5.185,1.443,12.67,14.855,17.094
			c2.02,0.755,11.307,3.311,13.225,3.943c1.816,0.507,5.949,1.84,5.627,5.524c-0.25,2.876-4.125,6.438-12.066,5.739
			c-6.549-0.572-11.035-3.1-14.129-6.529l-10.109,7.786c6.252,6.635,15.416,10.139,23.986,10.885
			c17.842,1.567,26.836-8.43,27.625-17.407C353.7,497.413,351.803,492.611,348.473,489.532"/>
		<path d="M445.137,468.171v-1.81c-0.236-3.484-3.059-6.251-6.564-6.395h-6.84v57.775h13.404v-21.378
			c0-9.591,0.113-15.484,6.01-19.991c4.273-3.232,9.469-3.351,12.475-3.467v-14.209
			C450.682,458.351,446.868,465.171,445.137,468.171"/>
		<path d="M481.381,459.968c-3.662,0.149-6.584,3.157-6.584,6.854h-0.004v50.917h13.752v-57.771H481.381L481.381,459.968z"/>
		<path d="M617.719,465.166c-2.883-3.928-8.551-6.932-15.135-6.932c-4.506,0-9.82,1.501-13.285,4.043
			c-2.428,1.616-3.814,3.466-4.51,4.507v-0.007l-0.018,0.045h-0.098c0-3.697-2.932-6.705-6.592-6.854h-7.275v57.771h13.98v-25.073
			c0-4.274,0-10.169,2.197-14.44c1.967-3.817,6.125-6.474,10.631-6.474s8.205,2.655,9.477,7.745
			c0.459,1.615,0.459,4.505,0.459,8.777v23.738c0.062,3.105,2.533,5.612,5.627,5.727h8.123v-33.968
			C621.301,476.262,621.301,470.021,617.719,465.166"/>
	</g>
	<path d="M653.606,526.205c-2.361-3.122-4.436-6.491-6.176-10.001l-0.08-0.166l0.092-0.166c7.361-12.951,9.697-23.734,8.334-38.453
		c-0.689-7.436-2.592-14.637-5.664-21.408l-0.156-0.338l0.096-0.156c2.121-3.488,4.588-6.786,7.334-9.792l0.475-0.52l0.129,0.692
		c0.371,1.958,0.979,3.887,1.811,5.72c3.564,7.85,5.775,16.201,6.572,24.82c1.578,17.017-1.508,30.716-10.322,45.809
		c-0.729,1.246-1.35,2.546-1.834,3.87l-0.225,0.599L653.606,526.205z"/>
	<path d="M695.215,546.45c-2.234,0-4.504-0.124-6.738-0.364l-0.637-0.067l0.398-0.499c0.551-0.683,1.068-1.412,1.553-2.157
		c4.58-7.15,9.332-11.834,16.498-17.983c12.541-10.755,27.609-17.93,43.584-20.742l0.18-0.032c1.484-0.218,2.965-0.584,4.395-1.081
		l0.678-0.241l-0.234,0.687c-1.377,3.961-3.162,7.812-5.309,11.445l-0.084,0.134l-0.148,0.031
		c-13.211,2.751-25.707,8.93-36.135,17.875c-5.307,4.555-9.035,8.08-12.383,12.624l-0.092,0.133l-0.154,0.009
		C698.766,546.373,696.965,546.45,695.215,546.45z"/>
	<path d="M752.167,465.195c-0.309-0.063-0.623-0.117-0.938-0.17c-20.562-3.295-39.807-14.347-54.186-31.114
		c-0.826-0.954-1.689-2.01-2.574-3.128l-0.512-0.654l0.717-0.062c0.475-0.008,1.002-0.02,1.529-0.02
		c4.293,0,8.629,0.454,12.893,1.338l0.107,0.023l0.074,0.075c10.02,10.143,22.199,17.46,35.229,21.161l0.1,0.029l0.068,0.084
		c3.082,3.683,5.727,7.696,7.875,11.935l0.32,0.645L752.167,465.195z"/>
	<path d="M668.961,545.77c-1.094,0-2.18-0.288-3.131-0.845l-0.363-0.245c-0.107-0.072-0.191-0.131-0.27-0.188
		c-2.646-1.964-3.33-5.638-1.576-8.378c0.262-0.41,0.525-0.805,0.789-1.201l0.301-0.451l0.035-0.089
		c11.289-20.044,15.211-38.411,13.082-61.335c-1.1-11.903-4.158-23.444-9.084-34.295c-1.416-3.118-0.029-6.816,3.098-8.23
		c0.809-0.367,1.666-0.557,2.545-0.557c1.066,0,2.127,0.276,3.064,0.805l0.102,0.059c0.104,0.062,0.207,0.125,0.311,0.195
		c0.104,0.068,0.176,0.117,0.252,0.169l0.119,0.095c0.465,0.359,0.834,0.71,1.143,1.106c1.143,1.448,2.293,2.846,3.42,4.157
		c19.168,22.352,44.992,37.112,72.705,41.558l0.277,0.062c0.207,0.047,0.396,0.092,0.574,0.15c2.578,0.799,4.377,3.233,4.375,5.922
		c0,0.204-0.008,0.38-0.025,0.551l-0.043,0.431l-0.049,0.24c-0.037,0.162-0.068,0.319-0.111,0.464l-0.031,0.104
		c-0.039,0.145-0.086,0.282-0.137,0.421c-0.098,0.232-0.156,0.378-0.221,0.51l-0.043,0.077c-0.07,0.146-0.143,0.275-0.213,0.402
		l-0.066,0.099c-0.082,0.131-0.156,0.242-0.23,0.353L759.463,488c-0.07,0.099-0.15,0.196-0.236,0.3
		c-0.021,0.024-0.281,0.306-0.35,0.374c-0.029,0.025-0.318,0.291-0.393,0.353c-0.098,0.082-0.182,0.146-0.268,0.208l-0.096,0.07
		c-0.168,0.123-0.283,0.191-0.389,0.26l-0.105,0.06c-0.135,0.08-0.266,0.145-0.404,0.212l-0.088,0.046
		c-0.125,0.059-0.271,0.12-0.422,0.177c-0.207,0.079-0.361,0.128-0.518,0.17c-0.205,0.058-0.363,0.094-0.518,0.121l-0.297,0.058
		c-21.666,3.715-42.07,13.349-58.98,27.853c-8.488,7.283-14.973,13.619-21.055,22.655l-0.086,0.131l-0.406,0.733
		c-0.168,0.302-0.332,0.606-0.514,0.91C673.229,544.589,671.167,545.77,668.961,545.77z M689.735,467.622
		c0.215,1.688,0.369,3.045,0.484,4.265c0.957,10.31,0.75,19.808-0.621,29.039l-1.117,7.485l6.02-4.586
		c8.857-6.745,18.459-12.366,28.545-16.711l6.547-2.816l-6.547-2.83c-10.012-4.326-19.568-9.935-28.395-16.684l-5.865-4.483
		L689.735,467.622z"/>
</g>
</svg>
