<?xml version="1.0" encoding="utf-8"?>
<!-- Generator: Adobe Illustrator 16.0.4, SVG Export Plug-In . SVG Version: 6.00 Build 0)  -->
<!DOCTYPE svg PUBLIC "-//W3C//DTD SVG 1.1//EN" "http://www.w3.org/Graphics/SVG/1.1/DTD/svg11.dtd">
<svg version="1.1" id="Layer_1" xmlns="http://www.w3.org/2000/svg" xmlns:xlink="http://www.w3.org/1999/xlink" x="0px" y="0px"
	 width="521.532px" height="116.496px" viewBox="239.195 429.954 521.532 116.496"
	 enable-background="new 239.195 429.954 521.532 116.496" xml:space="preserve">
<g>
	<g>
		<path fill="#004B8D" d="M402.844,459.968v24.496c-0.112,8.085-0.23,11.783-2.309,15.595c-1.848,3.006-5.431,6.126-11.209,6.126
			c-5.081,0-9.243-2.198-10.745-7.28c-0.462-1.499-0.462-3.467-0.462-5.777v-25.281c-0.165-4.116-3.328-7.457-7.369-7.879h-6.609
			v33.394c0,8.666,0,14.094,3.928,19.063c2.078,2.657,6.581,6.703,16.059,6.703c10.631,0,16.295-4.969,18.718-7.28v0.056h0.062
			c0,3.157,2.501,5.723,5.63,5.836h8.174v-57.771L402.844,459.968L402.844,459.968z"/>
		<path fill="#004B8D" d="M489.779,442.855c0,4.484-3.63,8.113-8.115,8.113c-4.479,0-8.112-3.629-8.112-8.113
			s3.633-8.114,8.112-8.114C486.149,434.741,489.779,438.37,489.779,442.855"/>
		<path fill="#004B8D" d="M277.187,513.247h0.004c0.005-0.008,0.011-0.008,0.014-0.016c0,0.156,0.01,0.368,0.026,0.62
			c0.271,2.041,1.901,3.656,3.958,3.892h12.771c-2.539-3.467-2.539-4.972-2.539-9.367v-30.614c0-6.24-0.119-11.671-6.938-15.829
			c-5.078-3.001-11.78-3.697-17.329-3.697c-3.699,0-17.45,0-22.993,10.05c-1.038,1.888-1.57,3.481-1.872,5.028l13.799,2.83
			c0.074-1.099,0.357-2.231,1.358-3.466c1.387-1.848,4.508-3.695,10.288-3.695c5.933,0,8.283,2.258,9.212,4.664
			c0.896,3.345-0.6,4.338-3.176,5.269c-2.789,0.791-5.719,1.41-14.127,3.126c-5.548,1.036-14.446,2.888-18.604,11.208
			c-1.153,2.308-1.846,4.965-1.846,7.856c0,9.932,7.854,18.023,20.91,18.023c7.955,0,14.069-3.339,17.082-5.879V513.247z
			 M263.227,507.225c-5.547,0-9.36-2.31-9.36-6.818c0-6.121,6.589-7.279,11.558-7.969c6.236-1.04,9.355-2.082,12.13-3.468v6.355
			c0,1.733,0,3.464-0.81,5.199C275.246,503.987,270.277,507.225,263.227,507.225"/>
		<path fill="#004B8D" d="M529.677,458.234c-17.218,0-29.467,12.712-29.467,30.388c0,17.677,12.017,30.852,30.043,30.852
			c17.451,0,29.349-12.825,29.349-30.852C559.489,469.442,545.734,458.234,529.677,458.234 M530.254,506.762
			c-8.32,0-15.602-6.586-15.602-18.487c0-10.629,6.243-17.561,14.906-17.561c9.709,0,15.255,8.088,15.484,17.679
			C545.391,497.983,540.308,506.762,530.254,506.762"/>
		<path fill="#004B8D" d="M348.473,489.532c-3.428-3.199-6.72-4.066-18.493-7.305c-7.258-1.91-11.415-3.436-11.048-7.578
			c0.258-2.992,3.503-5.606,10.062-5.034c5.771,0.506,9.363,2.669,11.631,5.028l8.879-8.469c-0.152-0.124-0.294-0.246-0.457-0.37
			c-3.669-3.104-9.756-6.419-18.506-7.188c-15.767-1.384-25.421,6.819-26.277,16.599c-0.453,5.184,1.444,12.67,14.855,17.094
			c2.021,0.754,11.308,3.31,13.225,3.943c1.816,0.507,5.949,1.84,5.628,5.524c-0.251,2.876-4.125,6.439-12.068,5.74
			c-6.549-0.573-11.034-3.1-14.129-6.53l-10.109,7.786c6.253,6.635,15.416,10.139,23.986,10.885
			c17.842,1.568,26.837-8.429,27.626-17.407C353.699,497.413,351.803,492.611,348.473,489.532"/>
		<path fill="#004B8D" d="M445.137,468.171v-1.81c-0.237-3.484-3.058-6.251-6.564-6.394h-6.84v57.775h13.404v-21.378
			c0-9.591,0.113-15.484,6.01-19.991c4.274-3.232,9.469-3.351,12.474-3.467v-14.209
			C450.683,458.351,446.868,465.171,445.137,468.171"/>
		<path fill="#004B8D" d="M481.382,459.968c-3.662,0.149-6.585,3.157-6.585,6.854h-0.004v50.917h13.753v-57.771H481.382z"/>
		<path fill="#004B8D" d="M617.719,465.166c-2.883-3.928-8.55-6.932-15.134-6.932c-4.506,0-9.821,1.501-13.285,4.043
			c-2.429,1.617-3.816,3.466-4.511,4.507v-0.007l-0.017,0.045h-0.098c0-3.697-2.931-6.705-6.591-6.854h-7.276v57.771h13.981v-25.073
			c0-4.274,0-10.169,2.196-14.44c1.968-3.818,6.126-6.474,10.631-6.474c4.507,0,8.206,2.655,9.477,7.745
			c0.46,1.615,0.46,4.505,0.46,8.777v23.739c0.061,3.105,2.533,5.612,5.627,5.726h8.122v-33.968
			C621.302,476.262,621.302,470.021,617.719,465.166"/>
	</g>
	<path fill="#8DC63F" d="M653.606,526.205c-2.361-3.122-4.436-6.491-6.175-10.001l-0.081-0.166l0.091-0.166
		c7.363-12.951,9.698-23.734,8.334-38.453c-0.689-7.436-2.591-14.637-5.663-21.408l-0.156-0.338l0.096-0.156
		c2.121-3.489,4.588-6.787,7.333-9.792l0.475-0.52l0.129,0.692c0.371,1.958,0.979,3.887,1.811,5.72
		c3.564,7.85,5.775,16.201,6.571,24.821c1.578,17.016-1.507,30.715-10.321,45.808c-0.73,1.246-1.35,2.546-1.835,3.87l-0.225,0.599
		L653.606,526.205z"/>
	<path fill="#13B5EA" d="M695.216,546.45c-2.236,0-4.505-0.124-6.739-0.364l-0.637-0.067l0.399-0.499
		c0.55-0.683,1.069-1.413,1.552-2.158c4.581-7.15,9.333-11.834,16.498-17.983c12.542-10.755,27.61-17.93,43.584-20.742l0.18-0.032
		c1.485-0.218,2.966-0.584,4.394-1.082l0.678-0.241l-0.233,0.687c-1.377,3.961-3.163,7.812-5.31,11.445l-0.083,0.134l-0.148,0.031
		c-13.211,2.751-25.707,8.93-36.135,17.875c-5.308,4.555-9.035,8.08-12.383,12.624l-0.092,0.133l-0.154,0.009
		C698.766,546.373,696.965,546.45,695.216,546.45z"/>
	<path fill="#13B5EA" d="M752.167,465.195c-0.309-0.063-0.623-0.117-0.938-0.17c-20.563-3.295-39.806-14.346-54.186-31.114
		c-0.826-0.954-1.689-2.01-2.574-3.128l-0.511-0.654l0.717-0.063c0.473-0.007,1.001-0.019,1.529-0.019
		c4.293,0,8.629,0.454,12.893,1.338l0.106,0.023l0.075,0.075c10.02,10.143,22.199,17.46,35.228,21.162l0.099,0.029l0.07,0.084
		c3.082,3.682,5.726,7.696,7.874,11.934l0.321,0.645L752.167,465.195z"/>
	<path fill="#13B5EA" d="M668.961,545.77c-1.094,0-2.179-0.289-3.131-0.845l-0.363-0.245c-0.107-0.073-0.191-0.131-0.269-0.189
		c-2.646-1.964-3.331-5.637-1.576-8.378c0.261-0.41,0.525-0.804,0.788-1.201l0.302-0.451l0.034-0.089
		c11.289-20.044,15.212-38.411,13.082-61.335c-1.1-11.903-4.158-23.444-9.083-34.295c-1.416-3.118-0.029-6.816,3.097-8.23
		c0.809-0.368,1.667-0.557,2.545-0.557c1.066,0,2.127,0.276,3.064,0.805l0.102,0.058c0.104,0.062,0.208,0.125,0.311,0.196
		c0.104,0.068,0.176,0.117,0.252,0.169l0.119,0.094c0.465,0.36,0.834,0.71,1.143,1.107c1.142,1.448,2.292,2.845,3.419,4.157
		c19.169,22.352,44.992,37.112,72.706,41.558l0.277,0.062c0.206,0.047,0.396,0.092,0.573,0.15c2.58,0.799,4.377,3.234,4.375,5.922
		c0,0.204-0.007,0.38-0.024,0.551l-0.043,0.431l-0.049,0.24c-0.037,0.162-0.068,0.319-0.111,0.464l-0.032,0.103
		c-0.038,0.145-0.085,0.283-0.137,0.421c-0.098,0.233-0.155,0.378-0.22,0.51l-0.043,0.077c-0.071,0.146-0.142,0.276-0.214,0.403
		l-0.066,0.098c-0.081,0.131-0.155,0.242-0.229,0.353L759.464,488c-0.07,0.099-0.151,0.196-0.237,0.3
		c-0.022,0.024-0.281,0.305-0.35,0.374c-0.029,0.025-0.318,0.291-0.393,0.352c-0.096,0.082-0.18,0.146-0.267,0.208l-0.096,0.071
		c-0.167,0.123-0.282,0.191-0.388,0.259l-0.106,0.06c-0.135,0.08-0.266,0.145-0.403,0.212l-0.089,0.046
		c-0.124,0.058-0.271,0.12-0.422,0.177c-0.207,0.079-0.36,0.128-0.517,0.17c-0.205,0.057-0.363,0.093-0.518,0.121l-0.296,0.057
		c-21.667,3.715-42.071,13.349-58.981,27.853c-8.489,7.283-14.972,13.619-21.055,22.655l-0.086,0.131l-0.406,0.733
		c-0.168,0.302-0.332,0.607-0.513,0.91C673.229,544.589,671.166,545.77,668.961,545.77z M689.734,467.622
		c0.215,1.688,0.369,3.045,0.486,4.265c0.957,10.309,0.75,19.807-0.621,29.039l-1.119,7.485l6.02-4.586
		c8.858-6.745,18.459-12.366,28.545-16.711l6.547-2.816l-6.547-2.83c-10.012-4.326-19.568-9.935-28.395-16.684l-5.865-4.483
		L689.734,467.622z"/>
</g>
</svg>
