<?xml version="1.0" encoding="UTF-8"?>
<svg width="169px" height="139px" viewBox="0 0 169 139" version="1.1" xmlns="http://www.w3.org/2000/svg" xmlns:xlink="http://www.w3.org/1999/xlink">
    <!-- Generator: Sketch 51.1 (57501) - http://www.bohemiancoding.com/sketch -->
    <title>Group 6</title>
    <desc>Created with Sketch.</desc>
    <defs></defs>
    <g id="Docs-2.0" stroke="none" stroke-width="1" fill="none" fill-rule="evenodd">
        <g id="SelfieSignature-Copy-11" transform="translate(-312.000000, -347.000000)">
            <g id="Group-5" transform="translate(120.000000, 214.000000)">
                <g id="Group-6" transform="translate(192.000000, 133.000000)">
                    <rect id="Rectangle" stroke="#979797" x="0.5" y="0.5" width="168" height="138" rx="8"></rect>
                    <text id="Submit-a-Video" font-family="SourceSansPro-Regular, Source Sans Pro" font-size="18" font-weight="normal" letter-spacing="-0.152307689" fill="#2C2C2C">
                        <tspan x="26.3247219" y="116">Submit a Vide</tspan>
                        <tspan x="128.024722" y="116" letter-spacing="-0.105443783">o</tspan>
                    </text>
                    <path d="M126.419977,28.0226447 C124.799862,27.1581147 122.892947,27.2520887 121.36589,28.2143456 L105.444105,38.509532 L105.444105,28.1161953 C105.444105,26.9622569 104.490648,26 103.347261,26 L51.0968435,26 C49.9534574,26 49,26.9622569 49,28.1161953 L49,74.8838047 C49,76.0377431 49.9534574,77 51.0968435,77 L103.347261,77 C104.490648,77 105.444105,76.0377431 105.444105,74.8838047 L105.444105,64.5886182 L121.176152,74.7904657 C121.939661,75.369321 122.893138,75.5610218 123.846595,75.5610218 C124.703219,75.5610218 125.563581,75.369321 126.32711,74.9821665 C128.044096,74.1176365 128.997553,72.2870775 128.997553,70.3625637 L128.993825,32.6392069 C129.090658,30.7146931 128.040368,28.9856137 126.420253,28.0233568 L126.419977,28.0226447 Z M125,70.0193519 C125,70.4046621 124.805639,70.7937438 124.413112,70.8881856 C124.119668,71.0808406 123.826224,70.9863988 123.536585,70.8881856 L105,59.1849838 L105,42.9414967 L123.437073,31.1444913 C123.730517,30.9518362 124.023961,30.9518362 124.3136,31.1444913 C124.607044,31.3371464 124.900488,31.6280148 124.801405,32.1115382 L125,70.0193519 Z M101,61.3265842 L101,73 L53,73 L53,30 L100.90305,30 L100.906756,60.2555483 C100.999582,60.6431446 100.999582,60.9357388 100.999582,61.3271678 L101,61.3265842 Z" id="Page-1" fill="#000000"></path>
                </g>
            </g>
        </g>
    </g>
</svg>