<?xml version="1.0" encoding="UTF-8"?>
<svg width="169px" height="139px" viewBox="0 0 169 139" version="1.1" xmlns="http://www.w3.org/2000/svg" xmlns:xlink="http://www.w3.org/1999/xlink">
    <!-- Generator: Sketch 51.1 (57501) - http://www.bohemiancoding.com/sketch -->
    <title>Group 7</title>
    <desc>Created with Sketch.</desc>
    <defs></defs>
    <g id="Docs-2.0" stroke="none" stroke-width="1" fill="none" fill-rule="evenodd">
        <g id="VideoSelfie-Copy" transform="translate(-546.000000, -347.000000)">
            <g id="Group-5" transform="translate(120.000000, 214.000000)">
                <g id="Group-7" transform="translate(426.000000, 133.000000)">
                    <rect id="Rectangle-Copy-2" stroke="#979797" x="0.5" y="0.5" width="168" height="138" rx="8"></rect>
                    <text id="Submit-a-Signed-Affi" font-family="SourceSansPro-Regular, Source Sans Pro" font-size="18" font-weight="normal" line-spacing="21" letter-spacing="-0.152307689" fill="#2C2C2C">
                        <tspan x="22" y="102">Submit a Signed </tspan>
                        <tspan x="51.7339231" y="123">Affidavit</tspan>
                    </text>
                    <g id="Page-1" transform="translate(66.000000, 19.000000)" stroke="#000000" stroke-linecap="round" stroke-linejoin="round">
                        <path d="M40,53.1527584 C40,54.7255081 38.7312936,56 37.1656834,56 L2.83712,56 C1.2715098,56 0.0028034145,54.7255081 0.0028034145,53.1527584 L0,2.84724155 C0,1.2744919 1.26870638,0 2.83431659,0 L27.5559872,0 L39.9992758,10.2802051 L39.9992758,51.084113" id="Stroke-1" stroke-width="3"></path>
                        <polyline id="Stroke-2" stroke-width="3" points="27 3 27 11 36 11"></polyline>
                        <path d="M6,17 L33,17" id="Stroke-3" stroke-width="2"></path>
                        <path d="M6,24 L33,24" id="Stroke-4" stroke-width="2"></path>
                        <path d="M6,31 L33,31" id="Stroke-5" stroke-width="2"></path>
                        <path d="M31,38 L33,38" id="Stroke-6" stroke-width="2"></path>
                        <path d="M6,38 L28,38" id="Stroke-7" stroke-width="2"></path>
                        <path d="M12.0051899,49.925038 C12.2810113,49.4743377 14.8860085,44.8936 15.8193449,47.490085 C16.2205383,48.6097788 16.5576834,49.6614057 17.0730654,50.730013 C17.2179373,51.0304798 17.6999329,51.0985105 17.9144662,50.84056 C18.9425199,49.6075181 20.0234955,47.0875177 21.82612,47.059217 C22.5950563,47.0450448 23.3473029,46.8324481 24.1134575,46.7247311 C26.2085788,46.4355991 27.3620189,45.7751321 27.9749711,43.6718784 C28.1727791,42.9972393 27.1391336,42.7109591 26.9441358,43.3827463 C26.058158,46.4242788 23.4281121,45.3357884 21.3720047,45.9962843 C19.3325869,46.6510766 18.4633701,48.510552 17.1595093,50.0724632 C17.440901,50.1093122 17.7195111,50.1461612 18.00091,50.1830103 C17.1901783,48.5049209 16.7527526,46.7020905 15.9420209,45.0268312 C15.8194305,44.7717181 15.4405327,44.6753359 15.2093169,44.831244 C13.4373614,46.0245923 12.2003304,47.5553001 11.0859755,49.377941 C10.7154297,49.9732074 11.6403999,50.5202754 12.0054039,49.9250235 L12.0051899,49.925038 Z" id="Stroke-8" stroke-width="2"></path>
                    </g>
                </g>
            </g>
        </g>
    </g>
</svg>